Partial Dependence and other Profiles — light_profile • flashlight
…
fit_full <- lm(Sepal.Length ~ ., data = iris)
fit_part <- lm(Sepal.Length ~ Petal.Length, data = iris)
mod_full <- flashlight(model = fit_full, label = "full", data = iris, y = "Sepal.Length")
mod_part <- flashlight(model = fit_part, label = "part", data = iris, y = "Sepal.Length")
mods <- multiflashlight(list(mod_full, mod_part))

light_profile(mod_full, v = "Species")
#> 
#> I am an object with class(es) light_profile, light, list 
#> 
#> Tibbles:
#> 
#>  data 
#> # A tibble: 3 x 5
#>   Species    counts value label type              
#>   <fct>       <int> <dbl> <chr> <fct>             
#> 1 setosa        150  6.43 full  partial dependence
#> 2 versicolor    150  5.70 full  partial dependence
#> # ... with 1 more row
light_profile(mod_full, v = "Species", counts = FALSE)
#> 
#> I am an object with class(es) light_profile, light, list 
#> 
#> Tibbles:
#> 
#>  data 
#> # A tibble: 3 x 4
#>   Species    value label type              
#>   <fct>      <dbl> <chr> <fct>             
#> 1 setosa      6.43 full  partial dependence
#> 2 versicolor  5.70 full  partial dependence
#> # ... with 1 more row
light_profile(mod_full, v = "Species", type = "response")
#> 
#> I am an object with class(es) light_profile, light, list 
#> 
#> Tibbles:
#> 
#>  data 
#> # A tibble: 3 x 5
#>   Species    counts value label type    
#>   <fct>       <int> <dbl> <chr> <fct>   
#> 1 setosa         50  5.01 full  response
#> 2 versicolor     50  5.94 full  response
#> # ... with 1 more row
light_profile(mod_full, v = "Species", stats = "quartiles")
#> 
#> I am an object with class(es) light_profile, light, list 
#> 
#> Tibbles:
#> 
#>  data 
#> # A tibble: 3 x 7
#>   Species    counts    q1 value    q3 label type              
#>   <fct>       <int> <dbl> <dbl> <dbl> <chr> <fct>             
#> 1 setosa        150  5.14  6.71  7.26 full  partial dependence
#> 2 versicolor    150  4.42  5.98  6.54 full  partial dependence
#> # ... with 1 more row

light_profile(mod_full, v = "Petal.Width")
#> 
#> I am an object with class(es) light_profile, light, list 
#> 
#> Tibbles:
#> 
#>  data 
#> # A tibble: 13 x 5
#>   Petal.Width counts value label type              
#>         <dbl>  <int> <dbl> <chr> <fct>             
#> 1         0.1    150  6.19 full  partial dependence
#> 2         0.3    150  6.13 full  partial dependence
#> # ... with 11 more rows
light_profile(mod_full, v = "Petal.Width", type = "residual")
#> 
#> I am an object with class(es) light_profile, light, list 
#> 
#> Tibbles:
#> 
#>  data 
#> # A tibble: 12 x 5
#>   Petal.Width counts   value label type    
#>   <fct>        <int>   <dbl> <chr> <fct>   
#> 1 [0, 0.2]        34 -0.0274 full  residual
#> 2 (0.2, 0.4]      14  0.0669 full  residual
#> # ... with 10 more rows
light_profile(mod_full, v = "Petal.Width", type = "residual", v_label = FALSE)
#> 
#> I am an object with class(es) light_profile, light, list 
#> 
#> Tibbles:
#> 
#>  data 
#> # A tibble: 12 x 5
#>   Petal.Width counts   value label type    
#>         <dbl>  <int>   <dbl> <chr> <fct>   
#> 1         0.1     34 -0.0274 full  residual
#> 2         0.3     14  0.0669 full  residual
#> # ... with 10 more rows
light_profile(mod_full, v = "Petal.Width", type = "residual", dig.lab = 1)
#> 
#> I am an object with class(es) light_profile, light, list 
#> 
#> Tibbles:
#> 
#>  data 
#> # A tibble: 12 x 5
#>   Petal.Width counts   value label type    
#>   <fct>        <int>   <dbl> <chr> <fct>   
#> 1 [0, 0.2]        34 -0.0274 full  residual
#> 2 (0.2, 0.4]      14  0.0669 full  residual
#> # ... with 10 more rows
light_profile(mod_full, v = "Petal.Width", stats = "quartiles")
#> 
#> I am an object with class(es) light_profile, light, list 
#> 
#> Tibbles:
#> 
#>  data 
#> # A tibble: 13 x 7
#>   Petal.Width counts    q1 value    q3 label type              
#>         <dbl>  <int> <dbl> <dbl> <dbl> <chr> <fct>             
#> 1         0.1    150  5.21  6.35  6.92 full  partial dependence
#> 2         0.3    150  5.14  6.29  6.85 full  partial dependence
#> # ... with 11 more rows
light_profile(mod_full, v = "Petal.Width", n_bins = 3)
#> 
#> I am an object with class(es) light_profile, light, list 
#> 
#> Tibbles:
#> 
#>  data 
#> # A tibble: 3 x 5
#>   Petal.Width counts value label type              
#>         <dbl>  <int> <dbl> <chr> <fct>             
#> 1         0.5    150  6.06 full  partial dependence
#> 2         1.5    150  5.75 full  partial dependence
#> # ... with 1 more row
light_profile(mod_full, v = "Petal.Width", pd_evaluate_at = 2:4)
#> 
#> I am an object with class(es) light_profile, light, list 
#> 
#> Tibbles:
#> 
#>  data 
#> # A tibble: 3 x 5
#>   Petal.Width counts value label type              
#>         <int>  <int> <dbl> <chr> <fct>             
#> 1           2    150  5.59 full  partial dependence
#> 2           3    150  5.28 full  partial dependence
#> # ... with 1 more row
light_profile(mod_full, pd_grid = data.frame(Petal.Width = 2:4))
#> 
#> I am an object with class(es) light_profile, light, list 
#> 
#> Tibbles:
#> 
#>  data 
#> # A tibble: 3 x 5
#>   Petal.Width counts value label type              
#>         <int>  <int> <dbl> <chr> <fct>             
#> 1           2    150  5.59 full  partial dependence
#> 2           3    150  5.28 full  partial dependence
#> # ... with 1 more row

light_profile(mod_full, v = "Petal.Width", by = "Species")
#> 
#> I am an object with class(es) light_profile, light, list 
#> 
#> Tibbles:
#> 
#>  data 
#> # A tibble: 39 x 6
#>   Species Petal.Width counts value label type              
#>   <fct>         <dbl>  <int> <dbl> <chr> <fct>             
#> 1 setosa          0.1     50  5.05 full  partial dependence
#> 2 setosa          0.3     50  4.99 full  partial dependence
#> # ... with 37 more rows

light_profile(mods, v = "Petal.Width")
#> 
#> I am an object with class(es) light_profile_multi, light_profile, light, list 
#> 
#> Tibbles:
#> 
#>  data 
#> # A tibble: 26 x 5
#>   Petal.Width counts value label type              
#>         <dbl>  <int> <dbl> <fct> <fct>             
#> 1         0.1    150  6.19 full  partial dependence
#> 2         0.3    150  6.13 full  partial dependence
#> # ... with 24 more rows
light_profile(mods, v = "Petal.Width", by = "Species")
#> 
#> I am an object with class(es) light_profile_multi, light_profile, light, list 
#> 
#> Tibbles:
#> 
#>  data 
#> # A tibble: 78 x 6
#>   Species Petal.Width counts value label type              
#>   <fct>         <dbl>  <int> <dbl> <fct> <fct>             
#> 1 setosa          0.1     50  5.05 full  partial dependence
#> 2 setosa          0.3     50  4.99 full  partial dependence
#> # ... with 76 more rows
light_profile(mods, v = "Petal.Width", by = "Species", type = "predicted")
#> 
#> I am an object with class(es) light_profile_multi, light_profile, light, list 
#> 
#> Tibbles:
#> 
#>  data 
#> # A tibble: 30 x 6
#>   Species Petal.Width counts value label type     
#>   <fct>   <fct>        <int> <dbl> <fct> <fct>    
#> 1 setosa  [0, 0.2]        34  4.98 full  predicted
#> 2 setosa  (0.2, 0.4]      14  5.07 full  predicted
#> # ... with 28 more rows
light_profile(mods, v = "Petal.Width", by = "Species",
  type = "predicted", stats = "quartiles")
#> 
#> I am an object with class(es) light_profile_multi, light_profile, light, list 
#> 
#> Tibbles:
#> 
#>  data 
#> # A tibble: 30 x 8
#>   Species Petal.Width counts    q1 value    q3 label type     
#>   <fct>   <fct>        <int> <dbl> <dbl> <dbl> <fct> <fct>    
#> 1 setosa  [0, 0.2]        34  4.81  4.96  5.09 full  predicted
#> 2 setosa  (0.2, 0.4]      14  4.94  5.06  5.33 full  predicted
#> # ... with 28 more rows

light_profile(mods, v = "Petal.Width", by = "Species", stats = "quartiles",
  value_name = "pd", q1_name = "p25", q3_name = "p75", label_name = "model",
  type_name = "visualization", counts_name = "n")
#> 
#> I am an object with class(es) light_profile_multi, light_profile, light, list 
#> 
#> Tibbles:
#> 
#>  data 
#> # A tibble: 78 x 8
#>   Species Petal.Width     n   p25    pd   p75 model visualization     
#>   <fct>         <dbl> <int> <dbl> <dbl> <dbl> <fct> <fct>             
#> 1 setosa          0.1    50  4.92  5.06  5.21 full  partial dependence
#> 2 setosa          0.3    50  4.86  5.00  5.15 full  partial dependence
#> # ... with 76 more rows
…
