Permutation Importance — light_importance • flashlight
…
    Examples

fit_part <- lm(Sepal.Length ~ Petal.Length, data = iris)
fit_full <- lm(Sepal.Length ~ ., data = iris)
mod_full <- flashlight(model = fit_full, label = "full", data = iris, y = "Sepal.Length")
mod_part <- flashlight(model = fit_part, label = "part", data = iris, y = "Sepal.Length")
mods <- multiflashlight(list(mod_full, mod_part), by = "Species")
light_importance(mod_full)
#> 
#> I am an object with class(es) light_importance, light, list 
#> 
#> Tibbles:
#> 
#>  data 
#> # A tibble: 4 x 7
#>   label metric variable     value_shuffled value_original  value error
#>   <chr> <fct>  <chr>                 <dbl>          <dbl>  <dbl> <lgl>
#> 1 full  rmse   Sepal.Width           0.390          0.301 0.0898 NA   
#> 2 full  rmse   Petal.Length          2.02           0.301 1.72   NA   
#> # ... with 2 more rows
…
