Combination of Response, Predicted, Partial Dependence, and ALE Profiles — light_effects • flashlight
…
    light_profile, plot.light_effects.

    Examples

fit_full <- lm(Sepal.Length ~ ., data = iris)
mod_full <- flashlight(model = fit_full, label = "full", data = iris, y = "Sepal.Length")

light_effects(mod_full, v = "Species")
#> 
#> I am an object with class(es) light_effects, light, list 
#> 
#> Tibbles:
#> 
#>  response 
#> # A tibble: 3 x 5
#>   Species    counts value label type    
#>   <fct>       <int> <dbl> <chr> <fct>   
#> 1 setosa         50  5.01 full  response
#> 2 versicolor     50  5.94 full  response
#> # ... with 1 more row
#> 
#>  predicted 
#> # A tibble: 3 x 4
#>   Species    value label type     
#>   <fct>      <dbl> <chr> <fct>    
#> 1 setosa      5.01 full  predicted
#> 2 versicolor  5.94 full  predicted
#> # ... with 1 more row
#> 
#>  pd 
#> # A tibble: 3 x 4
#>   Species    value label type              
#>   <fct>      <dbl> <chr> <fct>             
#> 1 setosa      6.43 full  partial dependence
#> 2 versicolor  5.70 full  partial dependence
#> # ... with 1 more row
#> 
#>  ale 
#> # A tibble: 3 x 4
#>   Species    value label type 
#>   <fct>      <dbl> <chr> <fct>
#> 1 setosa      6.43 full  ale  
#> 2 versicolor  5.70 full  ale  
#> # ... with 1 more row
light_effects(mod_full, v = "Species", stats = "quartiles")
#> 
#> I am an object with class(es) light_effects, light, list 
#> 
#> Tibbles:
#> 
#>  response 
#> # A tibble: 3 x 7
#>   Species    counts    q1 value    q3 label type    
#>   <fct>       <int> <dbl> <dbl> <dbl> <chr> <fct>   
#> 1 setosa         50   4.8   5     5.2 full  response
#> 2 versicolor     50   5.6   5.9   6.3 full  response
#> # ... with 1 more row
#> 
#>  predicted 
#> # A tibble: 3 x 4
#>   Species    value label type     
#>   <fct>      <dbl> <chr> <fct>    
#> 1 setosa      5.01 full  predicted
#> 2 versicolor  5.94 full  predicted
#> # ... with 1 more row
#> 
#>  pd 
#> # A tibble: 3 x 4
#>   Species    value label type              
#>   <fct>      <dbl> <chr> <fct>             
#> 1 setosa      6.43 full  partial dependence
#> 2 versicolor  5.70 full  partial dependence
#> # ... with 1 more row
#> 
#>  ale 
#> # A tibble: 3 x 4
#>   Species    value label type 
#>   <fct>      <dbl> <chr> <fct>
#> 1 setosa      6.43 full  ale  
#> 2 versicolor  5.70 full  ale  
#> # ... with 1 more row
…
