Most Important Variables. — most_important • flashlight
…
    light_importance.

    Examples

fit <- lm(Sepal.Length ~ ., data = iris)
fl <- flashlight(model = fit, label = "ols", data = iris, y = "Sepal.Length")
(imp <- light_importance(fl, seed = 4))
#> 
#> I am an object with class(es) light_importance, light, list 
#> 
#> Tibbles:
#> 
#>  data 
#> # A tibble: 4 x 6
#>   variable     metric value_shuffled label value_original value
#>   <chr>        <fct>           <dbl> <chr>          <dbl> <dbl>
#> 1 Sepal.Width  rmse            0.403 ols            0.301 0.102
#> 2 Petal.Length rmse            1.96  ols            0.301 1.66 
#> # ... with 2 more rows
…
