Using flashlight • flashlight
…
fl_lm <- fls$lm

Assess performance

Let’s compare the models regarding their validation performance.

perf <- light_performance(fls)
perf
#> 
#> I am an object with class(es) light_performance_multi, light_performance, light, list 
#> 
#> Tibbles:
#> 
#>  data 
#> # A tibble: 8 x 3
#>   metric        value label
#>   <fct>         <dbl> <fct>
#> 1 rmse       0.522    mean 
#> 2 R-squared -0.000116 mean 
#> # ... with 6 more rows
…
For performance considerations, the minimum required info in the (multi-)flashlight are: “y”, “predict_function”, “model”, “data” and “metrics”. The latter two can also be passed on the fly.

Variable importance

Now let’s study variable importance of the explainers. By default, it is shown with respect to the first metric in the explainers. In our case, its the root-mean-squared error.

(imp <- light_importance(fls, n_max = 1000))
#> 
#> I am an object with class(es) light_importance_multi, light_importance, light, list 
#> 
#> Tibbles:
#> 
#>  data 
#> # A tibble: 92 x 6
#>   variable metric value_shuffled label value_original value
#>   <chr>    <fct>           <dbl> <fct>          <dbl> <dbl>
#> 1 id       rmse            0.530 mean           0.530     0
#> 2 date     rmse            0.530 mean           0.530     0
#> # ... with 90 more rows
…
Oops, what happened? Too many variables were tested for permutation drop in rmse, namely all in the data set, except the response. While this can be useful in certain situations, we will just pass the vector x of covariables. Furthermore we replace the metric to mean-squared error.

(imp <- light_importance(fls, v = x, metric = list(mse = mse)))
#> 
#> I am an object with class(es) light_importance_multi, light_importance, light, list 
#> 
#> Tibbles:
#> 
#>  data 
#> # A tibble: 32 x 6
#>   variable metric value_shuffled label value_original value
#>   <chr>    <fct>           <dbl> <fct>          <dbl> <dbl>
#> 1 grade    mse             0.272 mean           0.272     0
#> 2 year     mse             0.272 mean           0.272     0
#> # ... with 30 more rows
…
Partial dependence profiles

If many ICE profiles (in our case 1000) are averaged, we get an impression on the average effect of the considered variable. Such curves are called partial dependence profiles (PD) resp. partial dependence plots.

pd <- light_profile(fls, v = "sqft_living")
pd
#> 
#> I am an object with class(es) light_profile_multi, light_profile, light, list 
#> 
#> Tibbles:
#> 
#>  data 
#> # A tibble: 36 x 5
#>   sqft_living counts   value label type              
#>         <dbl>  <int>   <dbl> <fct> <fct>             
#> 1         500   1000 464764. mean  partial dependence
#> 2        1500   1000 464764. mean  partial dependence
#> # ... with 34 more rows
…
Accumulated local effects (ALE)

An approximation of main effects without Ceteris Paribus clause are accumulated local effects profiles [2]. They are based on accumulating local partial dependence slopes.

ale <- light_profile(fls, v = "sqft_living", type = "ale")
ale
#> 
#> I am an object with class(es) light_profile_multi, light_profile, light, list 
#> 
#> Tibbles:
#> 
#>  data 
#> # A tibble: 32 x 5
#>   sqft_living counts   value label type 
#>         <dbl>  <int>   <dbl> <fct> <fct>
#> 1        1500   1000 464764. mean  ale  
#> 2        2500   1000 464764. mean  ale  
#> # ... with 30 more rows
…
