Individual Conditional Expectation (ICE) — light_ice • flashlight
…
    light_profile(), plot.light_ice()

    Examples

fit <- lm(Sepal.Length ~ ., data = iris)
fl <- flashlight(model = fit, label = "lm", data = iris)
light_ice(fl, v = "Species")
#> 
#> I am an object of class light_ice 
#> 
#> data.frames:
#> 
#>  data 
#> # A tibble: 60 × 4
#>       id Species    value label
#>    <int> <fct>      <dbl> <chr>
#>  1     8 setosa      5.04 lm   
#>  2     8 versicolor  4.31 lm   
#>  3     8 virginica   4.01 lm   
#>  4    95 setosa      6.58 lm   
#>  5    95 versicolor  5.86 lm   
#>  6    95 virginica   5.56 lm   
#>  7   128 setosa      7.15 lm   
#>  8   128 versicolor  6.43 lm   
#>  9   128 virginica   6.13 lm   
#> 10   114 setosa      6.93 lm   
#> # ℹ 50 more rows
…
