Variable Contribution Breakdown for Single Observation — light_breakdown • flashlight
…
    Examples

fit_part <- lm(Sepal.Length ~ Petal.Length, data = iris)
fit_full <- lm(Sepal.Length ~ ., data = iris)
mod_full <- flashlight(model = fit_full, label = "full", data = iris, y = "Sepal.Length")
mod_part <- flashlight(model = fit_part, label = "part", data = iris, y = "Sepal.Length")
mods <- multiflashlight(list(mod_full, mod_part), by = "Species")
light_breakdown(mod_full, new_obs = iris[1, ])
#> 
#> I am an object with class(es) light_breakdown, light, list 
#> 
#> Tibbles:
#> 
#>  data 
#> # A tibble: 6 x 6
#>    step variable     after before label description              
#>   <int> <chr>        <dbl>  <dbl> <chr> <chr>                    
#> 1     0 baseline      5.84   5.84 full  average in data: 5.84    
#> 2     1 Petal.Length  3.89   5.84 full  Petal.Length = 1.4: -1.96
#> # ... with 4 more rows
light_breakdown(mods, new_obs = iris[1, ])
#> 
#> I am an object with class(es) light_breakdown_multi, light_breakdown, light, list 
#> 
#> Tibbles:
#> 
#>  data 
#> # A tibble: 10 x 7
#>    step variable     after before label description                 Species
#>   <int> <chr>        <dbl>  <dbl> <fct> <chr>                       <fct>  
#> 1     0 baseline      5.01   5.01 full  average in data: 5.01       setosa 
#> 2     1 Petal.Length  4.95   5.01 full  Petal.Length = 1.4: -0.0514 setosa 
#> # ... with 8 more rows
light_breakdown(mods, new_obs = iris[1, ], top_m = 2)
#> 
#> I am an object with class(es) light_breakdown_multi, light_breakdown, light, list 
#> 
#> Tibbles:
#> 
#>  data 
#> # A tibble: 8 x 7
#>    step variable     after before label description                 Species
#>   <int> <chr>        <dbl>  <dbl> <fct> <chr>                       <fct>  
#> 1     0 baseline      5.01   5.01 full  average in data: 5.01       setosa 
#> 2     1 Petal.Length  4.95   5.01 full  Petal.Length = 1.4: -0.0514 setosa 
#> # ... with 6 more rows
…
