Using flashlight • flashlight
…
Variable importance

Now let’s study variable importance of the explainers.

(imp <- light_importance(fls, v = x))
#> 
#> I am an object of class light_importance_multi 
#> 
#> data.frames:
#> 
#>  data 
#> # A tibble: 32 × 5
#>    label metric variable      value error
#>    <fct> <fct>  <chr>         <dbl> <lgl>
#>  1 mean  rmse   grade       0       NA   
#>  2 mean  rmse   year        0       NA   
#>  3 mean  rmse   age         0       NA   
#>  4 mean  rmse   sqft_living 0       NA   
#>  5 mean  rmse   sqft_lot    0       NA   
#>  6 mean  rmse   zipcode     0       NA   
#>  7 mean  rmse   condition   0       NA   
#>  8 mean  rmse   waterfront  0       NA   
#>  9 lm    rmse   grade       0.0828  NA   
#> 10 lm    rmse   year        0.00187 NA   
#> # ℹ 22 more rows
…
If many ICE profiles (in our case 1000) are averaged, we get an
impression on the average effect of the considered variable. Such curves
are called partial dependence profiles (PD) resp. partial
dependence plots.

pd <- light_profile(fls, v = "sqft_living")
pd
#> 
#> I am an object of class light_profile_multi 
#> 
#> data.frames:
#> 
#>  data 
#> # A tibble: 40 × 5
#>    sqft_living counts   value label type              
#>          <dbl>  <int>   <dbl> <fct> <fct>             
#>  1         500   1000 462845. mean  partial dependence
#>  2        1500   1000 462845. mean  partial dependence
#>  3        2500   1000 462845. mean  partial dependence
#>  4        3500   1000 462845. mean  partial dependence
#>  5        4500   1000 462845. mean  partial dependence
#>  6        5500   1000 462845. mean  partial dependence
#>  7        6500   1000 462845. mean  partial dependence
#>  8        7500   1000 462845. mean  partial dependence
#>  9        8500   1000 462845. mean  partial dependence
#> 10        9500   1000 462845. mean  partial dependence
#> # ℹ 30 more rows
…
An approximation of main effects without Ceteris Paribus clause are
accumulated local effects profiles (Fisher, Rudin, and Dominici
2018). They are based on accumulating local partial
dependence slopes.

ale <- light_profile(fls, v = "sqft_living", type = "ale")
ale
#> 
#> I am an object of class light_profile_multi 
#> 
#> data.frames:
#> 
#>  data 
#> # A tibble: 32 × 5
#>    sqft_living counts   value label type 
#>          <dbl>  <int>   <dbl> <fct> <fct>
#>  1        1500   1000 462845. mean  ale  
#>  2        2500   1000 462845. mean  ale  
#>  3        3500    859 462845. mean  ale  
#>  4        4500    231 462845. mean  ale  
#>  5        5500     52 462845. mean  ale  
#>  6        6500     16 462845. mean  ale  
#>  7        7500      9 462845. mean  ale  
#>  8        8500      5 462845. mean  ale  
#>  9        1500   1000 360940. lm    ale  
#> 10        2500   1000 483272. lm    ale  
#> # ℹ 22 more rows
…
